{
    "count": 32,
    "pageIndex": 1,
    "pageSize": 25,
    "pageCount": 2,
    "items": [
        {
            "$ref": "http:\/\/sports.core.api.espn.com\/v2\/sports\/football\/leagues\/nfl\/seasons\/2025\/teams\/22?lang=en&region=us"
        },
        {
            "$ref": "http:\/\/sports.core.api.espn.com\/v2\/sports\/football\/leagues\/nfl\/seasons\/2025\/teams\/1?lang=en&region=us"
        },
        {
            "$ref": "http:\/\/sports.core.api.espn.com\/v2\/sports\/football\/leagues\/nfl\/seasons\/2025\/teams\/33?lang=en&region=us"
        },
        {
            "$ref": "http:\/\/sports.core.api.espn.com\/v2\/sports\/football\/leagues\/nfl\/seasons\/2025\/teams\/2?lang=en&region=us"
        },
        {
            "$ref": "http:\/\/sports.core.api.espn.com\/v2\/sports\/football\/leagues\/nfl\/seasons\/2025\/teams\/29?lang=en&region=us"
        },
        {
            "$ref": "http:\/\/sports.core.api.espn.com\/v2\/sports\/football\/leagues\/nfl\/seasons\/2025\/teams\/3?lang=en&region=us"
        },
        {
            "$ref": "http:\/\/sports.core.api.espn.com\/v2\/sports\/football\/leagues\/nfl\/seasons\/2025\/teams\/4?lang=en&region=us"
        },
        {
            "$ref": "http:\/\/sports.core.api.espn.com\/v2\/sports\/football\/leagues\/nfl\/seasons\/2025\/teams\/5?lang=en&region=us"
        },
        {
            "$ref": "http:\/\/sports.core.api.espn.com\/v2\/sports\/football\/leagues\/nfl\/seasons\/2025\/teams\/6?lang=en&region=us"
        },
        {
            "$ref": "http:\/\/sports.core.api.espn.com\/v2\/sports\/football\/leagues\/nfl\/seasons\/2025\/teams\/7?lang=en&region=us"
        },
        {
            "$ref": "http:\/\/sports.core.api.espn.com\/v2\/sports\/football\/leagues\/nfl\/seasons\/2025\/teams\/8?lang=en&region=us"
        },
        {
            "$ref": "http:\/\/sports.core.api.espn.com\/v2\/sports\/football\/leagues\/nfl\/seasons\/2025\/teams\/9?lang=en&region=us"
        },
        {
            "$ref": "http:\/\/sports.core.api.espn.com\/v2\/sports\/football\/leagues\/nfl\/seasons\/2025\/teams\/34?lang=en&region=us"
        },
        {
            "$ref": "http:\/\/sports.core.api.espn.com\/v2\/sports\/football\/leagues\/nfl\/seasons\/2025\/teams\/11?lang=en&region=us"
        },
        {
            "$ref": "http:\/\/sports.core.api.espn.com\/v2\/sports\/football\/leagues\/nfl\/seasons\/2025\/teams\/30?lang=en&region=us"
        },
        {
            "$ref": "http:\/\/sports.core.api.espn.com\/v2\/sports\/football\/leagues\/nfl\/seasons\/2025\/teams\/12?lang=en&region=us"
        },
        {
            "$ref": "http:\/\/sports.core.api.espn.com\/v2\/sports\/football\/leagues\/nfl\/seasons\/2025\/teams\/24?lang=en&region=us"
        },
        {
            "$ref": "http:\/\/sports.core.api.espn.com\/v2\/sports\/football\/leagues\/nfl\/seasons\/2025\/teams\/14?lang=en&region=us"
        },
        {
            "$ref": "http:\/\/sports.core.api.espn.com\/v2\/sports\/football\/leagues\/nfl\/seasons\/2025\/teams\/13?lang=en&region=us"
        },
        {
            "$ref": "http:\/\/sports.core.api.espn.com\/v2\/sports\/football\/leagues\/nfl\/seasons\/2025\/teams\/15?lang=en&region=us"
        },
        {
            "$ref": "http:\/\/sports.core.api.espn.com\/v2\/sports\/football\/leagues\/nfl\/seasons\/2025\/teams\/16?lang=en&region=us"
        },
        {
            "$ref": "http:\/\/sports.core.api.espn.com\/v2\/sports\/football\/leagues\/nfl\/seasons\/2025\/teams\/17?lang=en&region=us"
        },
        {
            "$ref": "http:\/\/sports.core.api.espn.com\/v2\/sports\/football\/leagues\/nfl\/seasons\/2025\/teams\/18?lang=en&region=us"
        },
        {
            "$ref": "http:\/\/sports.core.api.espn.com\/v2\/sports\/football\/leagues\/nfl\/seasons\/2025\/teams\/19?lang=en&region=us"
        },
        {
            "$ref": "http:\/\/sports.core.api.espn.com\/v2\/sports\/football\/leagues\/nfl\/seasons\/2025\/teams\/20?lang=en&region=us"
        }
    ]
}